<?xml version="1.0" encoding="UTF-8" standalone="no"?>
<!-- Created with Inkscape (http://www.inkscape.org/) -->

<svg
   xmlns:dc="http://purl.org/dc/elements/1.1/"
   xmlns:cc="http://creativecommons.org/ns#"
   xmlns:rdf="http://www.w3.org/1999/02/22-rdf-syntax-ns#"
   xmlns:svg="http://www.w3.org/2000/svg"
   xmlns="http://www.w3.org/2000/svg"
   xmlns:sodipodi="http://sodipodi.sourceforge.net/DTD/sodipodi-0.dtd"
   xmlns:inkscape="http://www.inkscape.org/namespaces/inkscape"
   width="5.0959392mm"
   height="11.612861mm"
   viewBox="0 0 18.056478 41.147931"
   id="svg2"
   version="1.1"
   inkscape:version="0.91 r13725"
   sodipodi:docname="start.svg">
  <defs
     id="defs4" />
  <sodipodi:namedview
     id="base"
     pagecolor="#ffffff"
     bordercolor="#666666"
     borderopacity="1.0"
     inkscape:pageopacity="0"
     inkscape:pageshadow="2"
     inkscape:zoom="22.4"
     inkscape:cx="-15.971522"
     inkscape:cy="18.889634"
     inkscape:document-units="px"
     inkscape:current-layer="layer1"
     showgrid="false"
     fit-margin-top="0"
     fit-margin-left="0"
     fit-margin-right="0"
     fit-margin-bottom="0"
     inkscape:window-width="2560"
     inkscape:window-height="1381"
     inkscape:window-x="1366"
     inkscape:window-y="0"
     inkscape:window-maximized="1"
     showguides="true"
     inkscape:guide-bbox="true">
    <sodipodi:guide
       position="24.589199,19.745334"
       orientation="0,1"
       id="guide4165" />
    <sodipodi:guide
       position="-14.049138,15.325916"
       orientation="0,1"
       id="guide4169" />
    <sodipodi:guide
       position="-17.079596,30.099398"
       orientation="0,1"
       id="guide4171" />
    <sodipodi:guide
       position="-16.195712,10.401422"
       orientation="0,1"
       id="guide4173" />
    <sodipodi:guide
       position="9.0282391,30.099398"
       orientation="1,0"
       id="guide4138" />
  </sodipodi:namedview>
  <metadata
     id="metadata7">
    <rdf:RDF>
      <cc:Work
         rdf:about="">
        <dc:format>image/svg+xml</dc:format>
        <dc:type
           rdf:resource="http://purl.org/dc/dcmitype/StillImage" />
        <dc:title></dc:title>
      </cc:Work>
    </rdf:RDF>
  </metadata>
  <g
     inkscape:label="Ebene 1"
     inkscape:groupmode="layer"
     id="layer1"
     transform="translate(-111.07867,-456.63297)">
    <path
       class="foreground fill"
       style="opacity:1;fill-opacity:1;stroke:none;stroke-width:3.20000005;stroke-miterlimit:4;stroke-dasharray:none;stroke-dashoffset:0;stroke-opacity:1"
       d="m 120.82454,456.63297 c -2.68899,0 -4.30025,2.11557 -4.30025,5.5442 l 0,30.05952 c 0,1.53575 0.0658,5.54963 0.0658,5.54963 0,0 3.22074,-0.005 4.4799,-0.005 2.51831,0 4.54568,-2.47271 4.54568,-5.54421 l 0,-30.05952 c 0.0446,-3.28805 -1.74659,-5.63391 -4.79113,-5.54462 z"
       id="rect4171"
       inkscape:connector-curvature="0"
       sodipodi:nodetypes="csscsscc" />
  </g>
</svg>
